[
	"# Begining",
	{"sound": "silence"},
	{"sound": "logo", "autonext": true},
	{"sound": "enter", "loop": true},
	{"sound": "back", "loop": true},

	"# First round",
	"## 1.1) Question",
	{"sound": "gong", "autoplay": false, "autonext": true},
	{"sound": "back", "loop": true},
	{"sound": "gong", "autoplay": false, "autonext": true},
	{"sound": "back", "loop": true},

	"## 1.2) Discourse",
	{"sound": "peep", "autonext": true},
	{"sound": "quite_back", "loop": true},
	{"sound": "peep", "autonext": true},

	"## 1.3) Answer",
	{"sound": "back", "loop": true},
	{"sound": "gong", "autoplay": false, "autonext": true},
	{"sound": "quite_back", "loop": true},

	"# Addvertisment",
	{"sound": "add_intro", "autonext": true},
	{"sound": "silence"}
	{"sound": "add_outro", "autonext": true},
	{"sound": "back", "loop": true},

	"# Second round",
	"## 2.1) Question",
	{"sound": "gong", "autoplay": false, "autonext": true},
	{"sound": "back", "loop": true},
	{"sound": "box", "loop": true},

	"## 2.2) Discourse",
	{"sound": "peep", "autonext": true},
	{"sound": "quite_back", "loop": true},
	{"sound": "peep", "autonext": true},

	"## 2.3) Answer",
	{"sound": "back", "loop": true},
	{"sound": "gong", "autoplay": false, "autonext": true},
	{"sound": "quite_back", "loop": true},
	{"sound": "box", "loop": true},

	"# News",
	{"sound": "quite_back", "loop": true},
	{"sound": "back", "loop": true},

	"# Song",
	{"sound": "BTS", "loop": true},
	{"sound": "back", "loop": true},

	"# Third round",
	"## 3.1) Question",
	{"sound": "gong", "autoplay": false, "autonext": true},
	{"sound": "back", "loop": true},
	{"sound": "gong", "autoplay": false, "autonext": true},
	{"sound": "quite_back", "loop": true},

	"## 3.2) Discourse",
	{"sound": "peep", "autonext": true},
	{"sound": "quite_back", "loop": true},
	{"sound": "peep", "autonext": true},

	"## 3.3) Answer",
	{"sound": "back", "loop": true},
	{"sound": "gong", "autoplay": false, "autonext": true},
	{"sound": "quite_back", "loop": true},
	{"sound": "final", "loop": true},

	"# The end"
]


